{
  "$schema": "https://docs.renovatebot.com/renovate-schema.json",
  "extends": ["github>renovatebot/.github"],
  "platformAutomerge": true,
  "prCreation": "immediate",
  "packageRules": [
    {
      "description": "Trigger breaking release for major updates",
      "matchPackageNames": [
        "renovate/renovate",
        "ghcr.io/renovatebot/renovate"
      ],
      "matchUpdateTypes": ["major"],
      "commitMessagePrefix": "feat(deps)!:",
      "automergeType": "pr"
    },
    {
      "description": "Trigger feature release for minor updates",
      "matchPackageNames": [
        "renovate/renovate",
        "ghcr.io/renovatebot/renovate"
      ],
      "matchUpdateTypes": ["minor"],
      "semanticCommitType": "feat",
      "automergeType": "pr"
    },
    {
      "description": "Trigger fix release for patch updates",
      "matchPackageNames": [
        "renovate/renovate",
        "ghcr.io/renovatebot/renovate"
      ],
      "matchUpdateTypes": ["patch", "digest"],
      "semanticCommitType": "fix",
      "automergeType": "pr"
    },
    {
      "description": "Schedule digest updates daily",
      "matchUpdateTypes": ["digest"],
      "extends": ["schedule:daily"]
    },
    {
      "description": "Use node versioning and chore for node images",
      "matchPackageNames": ["ghcr.io/containerbase/node"],
      "semanticCommitType": "chore",
      "versioning": "node"
    },
    {
      "description": "Update references in readme",
      "matchFileNames": ["README.md"],
      "additionalBranchPrefix": "docs-",
      "automerge": true,
      "dependencyDashboardApproval": false,
      "semanticCommitType": "docs",
      "separateMajorMinor": false,
      "groupName": "dependencies",
      "extends": ["schedule:weekly"]
    },
    {
      "description": "Don't pin renovate images in templates",
      "matchFileNames": ["templates/**"],
      "matchPackageNames": ["ghcr.io/renovatebot/renovate"],
      "pinDigests": false
    }
  ],
  "customManagers": [
    {
      "customType": "regex",
      "description": "Update renovate-runner references",
      "fileMatch": ["^README\\.md$"],
      "matchStrings": [
        "\\s+- remote: https://gitlab\\.com/renovate-bot/renovate-runner/-/raw/(?<currentValue>v[0-9.]+)/",
        "\\s+ref: (?<currentValue>v[0-9.]+)\\s+",
        "\\s`(?<currentValue>v[0-9.]+)`\\s"
      ],
      "datasourceTemplate": "gitlab-releases",
      "depNameTemplate": "renovate-runner",
      "packageNameTemplate": "renovate-bot/renovate-runner",
      "versioningTemplate": "semver"
    }
  ],
  "gitlabci": {
    "fileMatch": ["\\.gitlab-ci\\.yml$"],
    "pinDigests": true
  }
}
